.................
----------------------------------------------------------------------
Ran 17 tests in 0.004s

OK
Name             Stmts   Miss Branch BrPart  Cover   Missing
------------------------------------------------------------
Collatz.py          31      0     12      0   100%
TestCollatz.py      74      0      0      0   100%
------------------------------------------------------------
TOTAL              105      0     12      0   100%
